%YAML 1.1
%TAG !u! tag:unity3d.com,2011:
--- !u!1001 &3502230561279194250
PrefabInstance:
  m_ObjectHideFlags: 0
  serializedVersion: 2
  m_Modification:
    m_TransformParent: {fileID: 0}
    m_Modifications:
    - target: {fileID: 5687618298421397546, guid: d54071ec6f0286a4180bcc731704051c,
        type: 3}
      propertyPath: m_Name
      value: ponte Variant
      objectReference: {fileID: 0}
    - target: {fileID: 5691206045015386174, guid: d54071ec6f0286a4180bcc731704051c,
        type: 3}
      propertyPath: m_LocalPosition.x
      value: 0
      objectReference: {fileID: 0}
    - target: {fileID: 5691206045015386174, guid: d54071ec6f0286a4180bcc731704051c,
        type: 3}
      propertyPath: m_LocalPosition.y
      value: 0
      objectReference: {fileID: 0}
    - target: {fileID: 5691206045015386174, guid: d54071ec6f0286a4180bcc731704051c,
        type: 3}
      propertyPath: m_LocalPosition.z
      value: 0
      objectReference: {fileID: 0}
    - target: {fileID: 5691206045015386174, guid: d54071ec6f0286a4180bcc731704051c,
        type: 3}
      propertyPath: m_LocalRotation.x
      value: -0
      objectReference: {fileID: 0}
    - target: {fileID: 5691206045015386174, guid: d54071ec6f0286a4180bcc731704051c,
        type: 3}
      propertyPath: m_LocalRotation.y
      value: -0
      objectReference: {fileID: 0}
    - target: {fileID: 5691206045015386174, guid: d54071ec6f0286a4180bcc731704051c,
        type: 3}
      propertyPath: m_LocalRotation.z
      value: -0
      objectReference: {fileID: 0}
    - target: {fileID: 5691206045015386174, guid: d54071ec6f0286a4180bcc731704051c,
        type: 3}
      propertyPath: m_LocalRotation.w
      value: 1
      objectReference: {fileID: 0}
    - target: {fileID: 5691206045015386174, guid: d54071ec6f0286a4180bcc731704051c,
        type: 3}
      propertyPath: m_RootOrder
      value: 0
      objectReference: {fileID: 0}
    - target: {fileID: 5691206045015386174, guid: d54071ec6f0286a4180bcc731704051c,
        type: 3}
      propertyPath: m_LocalEulerAnglesHint.x
      value: 0
      objectReference: {fileID: 0}
    - target: {fileID: 5691206045015386174, guid: d54071ec6f0286a4180bcc731704051c,
        type: 3}
      propertyPath: m_LocalEulerAnglesHint.y
      value: 0
      objectReference: {fileID: 0}
    - target: {fileID: 5691206045015386174, guid: d54071ec6f0286a4180bcc731704051c,
        type: 3}
      propertyPath: m_LocalEulerAnglesHint.z
      value: 0
      objectReference: {fileID: 0}
    - target: {fileID: 2512272238147989905, guid: d54071ec6f0286a4180bcc731704051c,
        type: 3}
      propertyPath: m_IsActive
      value: 0
      objectReference: {fileID: 0}
    - target: {fileID: 6261262213966189705, guid: d54071ec6f0286a4180bcc731704051c,
        type: 3}
      propertyPath: m_IsActive
      value: 0
      objectReference: {fileID: 0}
    - target: {fileID: 391245270562416161, guid: d54071ec6f0286a4180bcc731704051c,
        type: 3}
      propertyPath: m_IsActive
      value: 0
      objectReference: {fileID: 0}
    - target: {fileID: 4725395988935372459, guid: d54071ec6f0286a4180bcc731704051c,
        type: 3}
      propertyPath: m_IsActive
      value: 0
      objectReference: {fileID: 0}
    m_RemovedComponents: []
  m_SourcePrefab: {fileID: 100100000, guid: d54071ec6f0286a4180bcc731704051c, type: 3}
